--temp-output:C:\Users\benne\Documents\Visual Studio 2015\Projects\NineCodeChallenge\src\NineCodeChallenge.Tests\obj\Debug\netstandard1.5\
--out:C:\Users\benne\Documents\Visual Studio 2015\Projects\NineCodeChallenge\src\NineCodeChallenge.Tests\bin\Debug\netstandard1.5\NineCodeChallenge.Tests.dll
--define:DEBUG
--define:TRACE
--define:NETSTANDARD1_5
--suppress-warning:CS1701
--suppress-warning:CS1702
--suppress-warning:CS1705
--optimize:False
--output-name:NineCodeChallenge.Tests
--file-version:1.0.0.0
--version:1.0.0.0
--informational-version:1.0.0
--target-framework:.NETStandard,Version=v1.5
--reference:C:\Users\benne\.nuget\packages\Microsoft.Win32.Primitives\4.0.1-rc2-24027\ref\netstandard1.3\Microsoft.Win32.Primitives.dll
--reference:C:\Users\benne\.nuget\packages\System.AppContext\4.1.0-rc2-24027\ref\netstandard1.5\System.AppContext.dll
--reference:C:\Users\benne\.nuget\packages\System.Collections\4.0.11-rc2-24027\ref\netstandard1.3\System.Collections.dll
--reference:C:\Users\benne\.nuget\packages\System.Collections.Concurrent\4.0.12-rc2-24027\ref\netstandard1.3\System.Collections.Concurrent.dll
--reference:C:\Users\benne\.nuget\packages\System.Console\4.0.0-rc2-24027\ref\netstandard1.3\System.Console.dll
--reference:C:\Users\benne\.nuget\packages\System.Diagnostics.Debug\4.0.11-rc2-24027\ref\netstandard1.3\System.Diagnostics.Debug.dll
--reference:C:\Users\benne\.nuget\packages\System.Diagnostics.Tools\4.0.1-rc2-24027\ref\netstandard1.0\System.Diagnostics.Tools.dll
--reference:C:\Users\benne\.nuget\packages\System.Diagnostics.Tracing\4.1.0-rc2-24027\ref\netstandard1.5\System.Diagnostics.Tracing.dll
--reference:C:\Users\benne\.nuget\packages\System.Globalization\4.0.11-rc2-24027\ref\netstandard1.3\System.Globalization.dll
--reference:C:\Users\benne\.nuget\packages\System.Globalization.Calendars\4.0.1-rc2-24027\ref\netstandard1.3\System.Globalization.Calendars.dll
--reference:C:\Users\benne\.nuget\packages\System.IO\4.1.0-rc2-24027\ref\netstandard1.5\System.IO.dll
--reference:C:\Users\benne\.nuget\packages\System.IO.Compression\4.1.0-rc2-24027\ref\netstandard1.3\System.IO.Compression.dll
--reference:C:\Users\benne\.nuget\packages\System.IO.Compression.ZipFile\4.0.1-rc2-24027\ref\netstandard1.3\System.IO.Compression.ZipFile.dll
--reference:C:\Users\benne\.nuget\packages\System.IO.FileSystem\4.0.1-rc2-24027\ref\netstandard1.3\System.IO.FileSystem.dll
--reference:C:\Users\benne\.nuget\packages\System.IO.FileSystem.Primitives\4.0.1-rc2-24027\ref\netstandard1.3\System.IO.FileSystem.Primitives.dll
--reference:C:\Users\benne\.nuget\packages\System.Linq\4.1.0-rc2-24027\ref\netstandard1.5\System.Linq.dll
--reference:C:\Users\benne\.nuget\packages\System.Net.Http\4.0.1-rc2-24027\ref\netstandard1.1\System.Net.Http.dll
--reference:C:\Users\benne\.nuget\packages\System.Net.Primitives\4.0.11-rc2-24027\ref\netstandard1.3\System.Net.Primitives.dll
--reference:C:\Users\benne\.nuget\packages\System.Net.Sockets\4.1.0-rc2-24027\ref\netstandard1.3\System.Net.Sockets.dll
--reference:C:\Users\benne\.nuget\packages\System.ObjectModel\4.0.12-rc2-24027\ref\netstandard1.3\System.ObjectModel.dll
--reference:C:\Users\benne\.nuget\packages\System.Reflection\4.1.0-rc2-24027\ref\netstandard1.5\System.Reflection.dll
--reference:C:\Users\benne\.nuget\packages\System.Reflection.Extensions\4.0.1-rc2-24027\ref\netstandard1.0\System.Reflection.Extensions.dll
--reference:C:\Users\benne\.nuget\packages\System.Reflection.Primitives\4.0.1-rc2-24027\ref\netstandard1.0\System.Reflection.Primitives.dll
--reference:C:\Users\benne\.nuget\packages\System.Resources.ResourceManager\4.0.1-rc2-24027\ref\netstandard1.0\System.Resources.ResourceManager.dll
--reference:C:\Users\benne\.nuget\packages\System.Runtime\4.1.0-rc2-24027\ref\netstandard1.5\System.Runtime.dll
--reference:C:\Users\benne\.nuget\packages\System.Runtime.Extensions\4.1.0-rc2-24027\ref\netstandard1.5\System.Runtime.Extensions.dll
--reference:C:\Users\benne\.nuget\packages\System.Runtime.Handles\4.0.1-rc2-24027\ref\netstandard1.3\System.Runtime.Handles.dll
--reference:C:\Users\benne\.nuget\packages\System.Runtime.InteropServices\4.1.0-rc2-24027\ref\netstandard1.5\System.Runtime.InteropServices.dll
--reference:C:\Users\benne\.nuget\packages\System.Runtime.InteropServices.PInvoke\4.0.0-rc2-24027\ref\netstandard1.3\System.Runtime.InteropServices.PInvoke.dll
--reference:C:\Users\benne\.nuget\packages\System.Runtime.InteropServices.RuntimeInformation\4.0.0-rc2-24027\ref\netstandard1.1\System.Runtime.InteropServices.RuntimeInformation.dll
--reference:C:\Users\benne\.nuget\packages\System.Runtime.Numerics\4.0.1-rc2-24027\ref\netstandard1.1\System.Runtime.Numerics.dll
--reference:C:\Users\benne\.nuget\packages\System.Text.Encoding\4.0.11-rc2-24027\ref\netstandard1.3\System.Text.Encoding.dll
--reference:C:\Users\benne\.nuget\packages\System.Text.Encoding.Extensions\4.0.11-rc2-24027\ref\netstandard1.3\System.Text.Encoding.Extensions.dll
--reference:C:\Users\benne\.nuget\packages\System.Text.RegularExpressions\4.0.12-rc2-24027\ref\netstandard1.3\System.Text.RegularExpressions.dll
--reference:C:\Users\benne\.nuget\packages\System.Threading\4.0.11-rc2-24027\ref\netstandard1.3\System.Threading.dll
--reference:C:\Users\benne\.nuget\packages\System.Threading.Tasks\4.0.11-rc2-24027\ref\netstandard1.3\System.Threading.Tasks.dll
--reference:C:\Users\benne\.nuget\packages\System.Threading.Timer\4.0.1-rc2-24027\ref\netstandard1.2\System.Threading.Timer.dll
--reference:C:\Users\benne\.nuget\packages\System.Xml.ReaderWriter\4.0.11-rc2-24027\ref\netstandard1.3\System.Xml.ReaderWriter.dll
--reference:C:\Users\benne\.nuget\packages\System.Xml.XDocument\4.0.11-rc2-24027\ref\netstandard1.3\System.Xml.XDocument.dll
C:\Users\benne\Documents\Visual Studio 2015\Projects\NineCodeChallenge\src\NineCodeChallenge.Tests\Class1.cs
C:\Users\benne\Documents\Visual Studio 2015\Projects\NineCodeChallenge\src\NineCodeChallenge.Tests\Properties\AssemblyInfo.cs
